module github.com/oom-ai/oomstore

go 1.17

require (
	cloud.google.com/go/bigquery v1.25.0
	github.com/adrg/xdg v0.4.0
	github.com/aws/aws-sdk-go-v2 v1.11.2
	github.com/aws/aws-sdk-go-v2/config v1.11.1
	github.com/aws/aws-sdk-go-v2/credentials v1.6.5
	github.com/aws/aws-sdk-go-v2/feature/dynamodb/attributevalue v1.4.5
	github.com/aws/aws-sdk-go-v2/service/dynamodb v1.11.0
	github.com/fatih/structtag v1.2.0
	github.com/go-redis/redis/v8 v8.11.4
	github.com/go-sql-driver/mysql v1.6.0
	github.com/gocql/gocql v0.0.0-20211222173705-d73e6b1002a7
	github.com/golang/mock v1.6.0
	github.com/jackc/pgerrcode v0.0.0-20201024163028-a0d42d470451
	github.com/jmoiron/sqlx v1.3.4
	github.com/lib/pq v1.10.4
	github.com/mitchellh/mapstructure v1.4.3
	github.com/olekukonko/tablewriter v0.0.5
	github.com/pingcap/errors v0.11.5-0.20201126102027-b0a155152ca3
	github.com/pingcap/log v0.0.0-20211215031037-e024ba4eb0ee
	github.com/pkg/errors v0.9.1
	github.com/snowflakedb/gosnowflake v1.6.5
	github.com/spf13/cast v1.4.1
	github.com/spf13/cobra v1.3.0
	github.com/stretchr/testify v1.7.0
	github.com/tikv/client-go/v2 v2.0.0-rc
	go.uber.org/zap v1.19.1
	google.golang.org/api v0.63.0
	google.golang.org/genproto v0.0.0-20211223182754-3ac035c7e7cb
	google.golang.org/grpc v1.43.0
	google.golang.org/protobuf v1.27.1
	gopkg.in/yaml.v3 v3.0.0-20210107192922-496545a6307b
	modernc.org/sqlite v1.14.3
)

require (
	cloud.google.com/go v0.99.0 // indirect
	github.com/Azure/azure-pipeline-go v0.2.3 // indirect
	github.com/Azure/azure-storage-blob-go v0.14.0 // indirect
	github.com/apache/arrow/go/arrow v0.0.0-20211112161151-bc219186db40 // indirect
	github.com/aws/aws-sdk-go-v2/aws/protocol/eventstream v1.0.0 // indirect
	github.com/aws/aws-sdk-go-v2/feature/ec2/imds v1.8.2 // indirect
	github.com/aws/aws-sdk-go-v2/feature/s3/manager v1.7.5 // indirect
	github.com/aws/aws-sdk-go-v2/internal/configsources v1.1.2 // indirect
	github.com/aws/aws-sdk-go-v2/internal/endpoints/v2 v2.0.2 // indirect
	github.com/aws/aws-sdk-go-v2/internal/ini v1.3.2 // indirect
	github.com/aws/aws-sdk-go-v2/service/dynamodbstreams v1.9.0 // indirect
	github.com/aws/aws-sdk-go-v2/service/internal/accept-encoding v1.5.0 // indirect
	github.com/aws/aws-sdk-go-v2/service/internal/endpoint-discovery v1.3.3 // indirect
	github.com/aws/aws-sdk-go-v2/service/internal/presigned-url v1.5.2 // indirect
	github.com/aws/aws-sdk-go-v2/service/internal/s3shared v1.9.2 // indirect
	github.com/aws/aws-sdk-go-v2/service/s3 v1.22.0 // indirect
	github.com/aws/aws-sdk-go-v2/service/sso v1.7.0 // indirect
	github.com/aws/aws-sdk-go-v2/service/sts v1.12.0 // indirect
	github.com/aws/smithy-go v1.9.0 // indirect
	github.com/beorn7/perks v1.0.1 // indirect
	github.com/census-instrumentation/opencensus-proto v0.3.0 // indirect
	github.com/cespare/xxhash/v2 v2.1.2 // indirect
	github.com/cncf/udpa/go v0.0.0-20210930031921-04548b0d99d4 // indirect
	github.com/cncf/xds/go v0.0.0-20211216145620-d92e9ce0af51 // indirect
	github.com/coreos/etcd v3.3.27+incompatible // indirect
	github.com/coreos/go-systemd v0.0.0-20191104093116-d3cd4ed1dbcf // indirect
	github.com/coreos/pkg v0.0.0-20180928190104-399ea9e2e55f // indirect
	github.com/davecgh/go-spew v1.1.1 // indirect
	github.com/dgryski/go-rendezvous v0.0.0-20200823014737-9f7001d12a5f // indirect
	github.com/envoyproxy/go-control-plane v0.10.1 // indirect
	github.com/envoyproxy/protoc-gen-validate v0.6.2 // indirect
	github.com/form3tech-oss/jwt-go v3.2.5+incompatible // indirect
	github.com/gabriel-vasile/mimetype v1.4.0 // indirect
	github.com/gogo/protobuf v1.3.2 // indirect
	github.com/golang/groupcache v0.0.0-20210331224755-41bb18bfe9da // indirect
	github.com/golang/protobuf v1.5.2 // indirect
	github.com/golang/snappy v0.0.4 // indirect
	github.com/google/btree v1.0.1 // indirect
	github.com/google/flatbuffers v2.0.5+incompatible // indirect
	github.com/google/go-cmp v0.5.6 // indirect
	github.com/google/uuid v1.3.0 // indirect
	github.com/googleapis/gax-go/v2 v2.1.1 // indirect
	github.com/grpc-ecosystem/go-grpc-middleware v1.3.0 // indirect
	github.com/hailocab/go-hostpool v0.0.0-20160125115350-e80d13ce29ed // indirect
	github.com/inconshreveable/mousetrap v1.0.0 // indirect
	github.com/jmespath/go-jmespath v0.4.0 // indirect
	github.com/kballard/go-shellquote v0.0.0-20180428030007-95032a82bc51 // indirect
	github.com/klauspost/compress v1.13.6 // indirect
	github.com/kr/text v0.2.0 // indirect
	github.com/mattn/go-ieproxy v0.0.1 // indirect
	github.com/mattn/go-isatty v0.0.14 // indirect
	github.com/mattn/go-runewidth v0.0.13 // indirect
	github.com/matttproud/golang_protobuf_extensions v1.0.1 // indirect
	github.com/opentracing/opentracing-go v1.2.0 // indirect
	github.com/pierrec/lz4/v4 v4.1.12 // indirect
	github.com/pingcap/failpoint v0.0.0-20210918120811-547c13e3eb00 // indirect
	github.com/pingcap/kvproto v0.0.0-20211229082925-7a8280c36daf // indirect
	github.com/pkg/browser v0.0.0-20210911075715-681adbf594b8 // indirect
	github.com/pmezard/go-difflib v1.0.0 // indirect
	github.com/prometheus/client_golang v1.11.0 // indirect
	github.com/prometheus/client_model v0.2.0 // indirect
	github.com/prometheus/common v0.32.1 // indirect
	github.com/prometheus/procfs v0.7.3 // indirect
	github.com/remyoudompheng/bigfft v0.0.0-20200410134404-eec4a21b6bb0 // indirect
	github.com/rivo/uniseg v0.2.0 // indirect
	github.com/sirupsen/logrus v1.8.1 // indirect
	github.com/spf13/pflag v1.0.5 // indirect
	github.com/tikv/pd v1.1.0-beta.0.20211029083450-e65f0c55b6ae // indirect
	go.etcd.io/etcd v3.3.27+incompatible // indirect
	go.opencensus.io v0.23.0 // indirect
	go.uber.org/atomic v1.9.0 // indirect
	go.uber.org/multierr v1.7.0 // indirect
	golang.org/x/crypto v0.0.0-20211215153901-e495a2d5b3d3 // indirect
	golang.org/x/mod v0.5.0 // indirect
	golang.org/x/net v0.0.0-20211216030914-fe4d6282115f // indirect
	golang.org/x/oauth2 v0.0.0-20211104180415-d3ed0bb246c8 // indirect
	golang.org/x/sync v0.0.0-20210220032951-036812b2e83c // indirect
	golang.org/x/sys v0.0.0-20211216021012-1d35b9e2eb4e // indirect
	golang.org/x/text v0.3.7 // indirect
	golang.org/x/tools v0.1.5 // indirect
	golang.org/x/xerrors v0.0.0-20200804184101-5ec99f83aff1 // indirect
	google.golang.org/appengine v1.6.7 // indirect
	gopkg.in/inf.v0 v0.9.1 // indirect
	gopkg.in/natefinch/lumberjack.v2 v2.0.0 // indirect
	lukechampine.com/uint128 v1.1.1 // indirect
	modernc.org/cc/v3 v3.35.18 // indirect
	modernc.org/ccgo/v3 v3.12.95 // indirect
	modernc.org/libc v1.11.104 // indirect
	modernc.org/mathutil v1.4.1 // indirect
	modernc.org/memory v1.0.5 // indirect
	modernc.org/opt v0.1.1 // indirect
	modernc.org/strutil v1.1.1 // indirect
	modernc.org/token v1.0.0 // indirect
)
